<svg width="173" height="98" viewBox="0 0 173 98" fill="none" xmlns="http://www.w3.org/2000/svg">
<path d="M65.7652 21.3199C65.7652 21.3199 32.7652 18.3199 1.1652 20.0099C-5.1348 54.0099 16.1652 90.28 16.1652 90.28L86.8452 94.06L97.5952 88.5099L65.7652 21.3199Z" fill="#A32121"/>
<path d="M132.065 82.6601L172.095 76.5601L147.105 64.5601L132.065 82.6601Z" fill="#3F3F7A"/>
<path d="M50.1451 62.6099L62.7851 83.9599L46.4351 80.9999L50.1451 62.6099Z" fill="#3F3F7A"/>
<path d="M79.9156 97.6201L46.4355 42.9201L114.476 10.3301L138.466 67.4201L79.9156 97.6201Z" fill="#6B6BD6"/>
<path d="M98.0354 81.4399L74.3154 38.0299L106.345 22.6499L126.425 66.8899L98.0354 81.4399Z" fill="#5A5AAD"/>
<path d="M97.8154 77.7199L74.3154 38.0299L106.345 22.6499L122.935 64.8499L97.8154 77.7199Z" fill="#DFDCF4"/>
<path d="M114.475 10.3301L106.675 2.33008L46.3154 30.3601L46.4354 42.9201L114.475 10.3301Z" fill="#5C5CC6"/>
<path d="M53.3252 19.15L72.3753 9.62L37.6353 0L53.3252 19.15Z" fill="#3F3F7A"/>
<path d="M73.895 66.9098L74.685 66.4298L69.725 31.7598L58.625 37.0798L73.895 66.9098Z" fill="#F94141"/>
<path d="M97.565 88.5202L74.685 66.4302L73.895 66.9102L86.815 94.0702L97.565 88.5202Z" fill="#F94141"/>
<path d="M58.6252 37.0801L50.5752 28.3801L65.7652 21.3301L69.7252 31.7601L58.6252 37.0801Z" fill="#C12F2F"/>
<path d="M74.4352 66.6202L63.8252 60.2202L64.5152 65.2702L74.4352 66.6202Z" fill="#F94141"/>
<path d="M74.4352 66.2598L67.3853 72.1398L72.3753 73.2798L74.4352 66.2598Z" fill="#F94141"/>
<path d="M105.275 70.7901L101.505 63.4001L105.045 62.0801L109.235 68.5501L105.275 70.7901Z" fill="#29294F"/>
<path d="M91.615 45.1801L86.395 36.5301L91.395 33.3701L95.135 43.2001L91.615 45.1801Z" fill="#29294F"/>
</svg>
